<?xml version="1.0" encoding="UTF-8"?>
<svg width="268px" height="113px" viewBox="0 0 268 113" version="1.1" xmlns="http://www.w3.org/2000/svg" xmlns:xlink="http://www.w3.org/1999/xlink">
    <title>logo-100-years</title>
    <g id="Page-1" stroke="none" stroke-width="1" fill="none" fill-rule="evenodd">
        <g id="Group" transform="translate(-1.1, -15.8858)" fill-rule="nonzero">
            <g id="logo-100-years" transform="translate(1.1, 15.8858)">
                <g id="Group-2" transform="translate(0, 65.6864)" fill="#FFFFFF">
                    <path d="M16.472231,28.608332 C17.8301487,28.608332 17.9153062,28.9420575 18.1017322,29.669349 L18.2030006,30.0721211 L18.7829925,30.0721211 L18.6310899,27.7406456 L9.12336508,27.7406456 L8.96225621,30.0721211 L9.54454969,30.0721211 L9.65042124,29.669349 C9.84145032,28.9397559 9.92660787,28.608332 11.2753193,28.608332 L13.1349759,28.608332 L13.1349759,34.9191965 C13.1349759,36.376081 12.9876764,36.5602054 11.8115816,36.5602054 L11.6711868,36.5602054 L11.6711868,37.1586098 L16.0786651,37.1586098 L16.0786651,36.5602054 L15.9382702,36.5602054 C14.764477,36.5602054 14.6148759,36.376081 14.6148759,34.9191965 L14.6148759,28.608332 L16.4699295,28.608332 L16.472231,28.608332 Z" id="Path"></path>
                    <path d="M23.5218948,36.5602054 L23.3815,36.5602054 L23.3815,37.1586098 L27.7728674,37.1586098 L27.7728674,36.5602054 L27.6324725,36.5602054 C26.4632825,36.5602054 26.3297923,36.3921919 26.3297923,34.9191965 L26.3297923,32.5854195 L31.2298034,32.5854195 L31.2298034,34.9191965 C31.2298034,36.376081 31.0802023,36.5602054 29.9041076,36.5602054 L29.7637127,36.5602054 L29.7637127,37.1586098 L34.1734926,37.1586098 L34.1734926,36.5602054 L34.0330977,36.5602054 C32.8477968,36.5602054 32.712005,36.3921919 32.712005,34.9191965 L32.712005,29.9662496 C32.712005,28.504762 32.8477968,28.33905 34.0330977,28.33905 L34.1734926,28.33905 L34.1734926,27.7406456 L29.7637127,27.7406456 L29.7637127,28.33905 L29.9041076,28.33905 C31.0940117,28.33905 31.2298034,28.5070635 31.2298034,29.9662496 L31.2298034,31.7407487 L26.3297923,31.7407487 L26.3297923,29.9662496 C26.3297923,28.504762 26.4632825,28.33905 27.6324725,28.33905 L27.7728674,28.33905 L27.7728674,27.7406456 L23.3815,27.7406456 L23.3815,28.33905 L23.5218948,28.33905 C24.6933865,28.33905 24.8291782,28.5070635 24.8291782,29.9662496 L24.8291782,34.9191965 C24.8291782,36.3921919 24.695688,36.5602054 23.5218948,36.5602054 L23.5218948,36.5602054 Z" id="Path"></path>
                    <path d="M39.3658013,36.5602054 L39.2254064,36.5602054 L39.2254064,37.1586098 L46.9609337,37.1586098 L47.0967254,34.8501499 L46.5190351,34.8501499 L46.4177666,35.2667314 C46.2405469,35.9664042 46.1507862,36.3185421 44.7859639,36.3185421 L43.476379,36.3185421 C42.3048874,36.3185421 42.1713972,36.1505286 42.1713972,34.6867394 L42.1713972,32.6107366 L42.7905155,32.6107366 C44.2520031,32.6107366 44.4200167,32.7465283 44.4200167,33.9318293 L44.4200167,34.0722242 L45.0230241,34.0722242 L45.0230241,30.2999751 L44.4200167,30.2999751 L44.4200167,30.44037 C44.4200167,31.6256709 44.2520031,31.7614627 42.7905155,31.7614627 L42.1713972,31.7614627 L42.1713972,28.5784118 L44.2842249,28.5784118 C45.6375394,28.5784118 45.7249985,28.902931 45.9160276,29.6141116 L46.017296,30.0283916 L46.6018911,30.0283916 L46.4430837,27.7383441 L39.2254064,27.7383441 L39.2254064,28.3367485 L39.3658013,28.3367485 C40.5395945,28.3367485 40.6753862,28.504762 40.6753862,29.963948 L40.6753862,34.916895 C40.6753862,36.3898903 40.541896,36.5579039 39.3658013,36.5579039 L39.3658013,36.5602054 Z" id="Path"></path>
                    <path d="M60.1718609,36.5602054 L60.031466,36.5602054 L60.031466,37.1586098 L64.3008511,37.1586098 C67.5736627,37.1586098 69.5299846,35.39792 69.5299846,32.4473262 C69.5299846,29.4967323 67.5759642,27.7406456 64.3008511,27.7406456 L60.031466,27.7406456 L60.031466,28.33905 L60.1718609,28.33905 C61.3456541,28.33905 61.4791443,28.5070635 61.4791443,29.9662496 L61.4791443,34.9191965 C61.4791443,36.376081 61.3318448,36.5602054 60.1718609,36.5602054 L60.1718609,36.5602054 Z M62.9751552,34.6867394 L62.9751552,28.5807133 L64.3100573,28.5807133 C67.1800967,28.5807133 67.7831042,30.6820333 67.7831042,32.4450246 C67.7831042,34.2080159 67.1800967,36.3162406 64.3100573,36.3162406 L64.2525184,36.3162406 C63.1086454,36.3162406 62.9774568,36.148227 62.9774568,34.6844379 L62.9751552,34.6867394 Z" id="Shape"></path>
                    <path d="M78.6786668,28.33905 L78.8190617,28.33905 L78.8190617,27.7406456 L74.4253927,27.7406456 L74.4253927,28.33905 L74.5657876,28.33905 C75.7395807,28.33905 75.8753725,28.5070635 75.8753725,29.9662496 L75.8753725,33.6211193 C75.8753725,35.895056 77.3990021,37.4209871 79.6683356,37.4209871 C81.9376691,37.4209871 83.4774095,35.8927544 83.4774095,33.6211193 L83.4774095,29.9662496 C83.4774095,28.5208729 83.6247091,28.33905 84.8008038,28.33905 L84.9411987,28.33905 L84.9411987,27.7406456 L81.0976014,27.7406456 L81.0976014,28.33905 L81.2379963,28.33905 C82.414091,28.33905 82.5613906,28.5208729 82.5613906,29.9662496 L82.5613906,33.6993722 C82.5613906,35.4485542 81.5901342,36.4497308 79.8984911,36.4497308 C78.2943071,36.4497308 77.373685,35.4462527 77.373685,33.6993722 L77.373685,29.9662496 C77.373685,28.504762 77.5071752,28.33905 78.6809684,28.33905 L78.6786668,28.33905 Z" id="Path"></path>
                    <path d="M90.1565229,36.5602054 L90.0161281,36.5602054 L90.0161281,37.1586098 L94.4028924,37.1586098 L94.4028924,36.5602054 L94.2624975,36.5602054 C93.0979106,36.5602054 92.9644204,36.3921919 92.9644204,34.9191965 L92.9644204,32.8662092 L93.2083852,32.6659739 L96.9806343,35.9249762 C97.2361069,36.1413224 97.2982489,36.2955266 97.2729318,36.3645732 C97.2384085,36.4566354 97.0128561,36.562507 96.4881015,36.562507 L96.3477066,36.562507 L96.3477066,37.1609113 L100.911691,37.1609113 L100.911691,36.562507 L100.771296,36.562507 C100.421459,36.562507 99.4594093,36.1965597 98.902433,35.7132331 L94.2993224,31.7200347 L96.8448425,29.5427634 C97.9173673,28.6267444 98.4283126,28.3413516 99.5376622,28.3413516 L99.6780571,28.3413516 L99.6780571,27.7429472 L95.8620784,27.7429472 L95.8620784,28.3413516 L96.0024733,28.3413516 C96.490403,28.3413516 96.5479419,28.4541278 96.552545,28.4679371 C96.5640528,28.5024604 96.5893699,28.7026957 95.8505707,29.3287188 L92.9667219,31.7982876 L92.9667219,29.9708527 C92.9667219,28.5093651 93.1002121,28.3436531 94.2647991,28.3436531 L94.405194,28.3436531 L94.405194,27.7452487 L90.0184296,27.7452487 L90.0184296,28.3436531 L90.1588245,28.3436531 C91.3280146,28.3436531 91.4615048,28.5116667 91.4615048,29.9708527 L91.4615048,34.9237996 C91.4615048,36.396795 91.3280146,36.5648085 90.1588245,36.5648085 L90.1565229,36.5602054 Z" id="Path"></path>
                    <path d="M105.625276,36.5602054 L105.484881,36.5602054 L105.484881,37.1586098 L113.215805,37.1586098 L113.353898,34.8501499 L112.771605,34.8501499 L112.677241,35.2667314 C112.504625,35.9664042 112.417165,36.3185421 111.043137,36.3185421 L109.735854,36.3185421 C108.56206,36.3185421 108.42857,36.1505286 108.42857,34.6867394 L108.42857,32.6107366 L109.054593,32.6107366 C110.506875,32.6107366 110.674888,32.7465283 110.674888,33.9318293 L110.674888,34.0722242 L111.280197,34.0722242 L111.280197,30.2999751 L110.674888,30.2999751 L110.674888,30.44037 C110.674888,31.6256709 110.509176,31.7614627 109.054593,31.7614627 L108.42857,31.7614627 L108.42857,28.5784118 L110.546001,28.5784118 C111.890109,28.5784118 111.982172,28.902931 112.177804,29.6141116 L112.276771,30.0283916 L112.852159,30.0283916 L112.70486,27.7383441 L105.487183,27.7383441 L105.487183,28.3367485 L105.627577,28.3367485 C106.799069,28.3367485 106.932559,28.504762 106.932559,29.963948 L106.932559,34.916895 C106.932559,36.3898903 106.799069,36.5579039 105.627577,36.5579039 L105.625276,36.5602054 Z" id="Path"></path>
                    <path d="M126.426732,36.5602054 L126.286338,36.5602054 L126.286338,37.1586098 L134.024166,37.1586098 L134.157657,34.8501499 L133.575363,34.8501499 L133.478698,35.2667314 C133.294573,36.0147368 133.167988,36.3185421 131.849197,36.3185421 L130.539612,36.3185421 C129.365818,36.3185421 129.230027,36.1505286 129.230027,34.6867394 L129.230027,32.6107366 L129.849145,32.6107366 C131.308331,32.6107366 131.476345,32.7465283 131.476345,33.9318293 L131.476345,34.0722242 L132.077051,34.0722242 L132.077051,30.2999751 L131.476345,30.2999751 L131.476345,30.44037 C131.476345,31.6256709 131.308331,31.7614627 129.849145,31.7614627 L129.230027,31.7614627 L129.230027,28.5784118 L131.349759,28.5784118 C132.69847,28.5784118 132.783628,28.902931 132.972356,29.6141116 L133.073624,30.0283916 L133.660521,30.0283916 L133.499412,27.7383441 L126.279433,27.7383441 L126.279433,28.3367485 L126.419828,28.3367485 C127.593621,28.3367485 127.729413,28.504762 127.729413,29.963948 L127.729413,34.916895 C127.729413,36.3737794 127.582113,36.5579039 126.419828,36.5579039 L126.426732,36.5602054 Z" id="Path"></path>
                    <path d="M139.589327,36.5602054 L139.448932,36.5602054 L139.448932,37.1586098 L143.209673,37.1586098 L143.209673,36.5602054 L143.069279,36.5602054 C141.895485,36.5602054 141.748186,36.376081 141.748186,34.9191965 L141.748186,30.0122807 L147.743737,37.4209871 L148.298412,37.4209871 L148.298412,29.9662496 C148.298412,28.504762 148.434204,28.33905 149.624108,28.33905 L149.764503,28.33905 L149.764503,27.7406456 L146.008365,27.7406456 L146.008365,28.33905 L146.148759,28.33905 C147.320251,28.33905 147.453741,28.5070635 147.453741,29.9662496 L147.453741,34.7350721 L141.856359,27.7912799 L141.814931,27.7383441 L139.451234,27.7383441 L139.451234,28.3367485 L139.591629,28.3367485 C140.765422,28.3367485 140.901213,28.504762 140.901213,29.963948 L140.901213,34.916895 C140.901213,36.3898903 140.767723,36.5579039 139.591629,36.5579039 L139.589327,36.5602054 Z" id="Path"></path>
                    <path d="M154.818718,36.5602054 L154.678323,36.5602054 L154.678323,37.1586098 L158.961518,37.1586098 C162.234329,37.1586098 164.190651,35.39792 164.190651,32.4473262 C164.190651,29.4967323 162.236631,27.7406456 158.961518,27.7406456 L154.678323,27.7406456 L154.678323,28.33905 L154.818718,28.33905 C156.001718,28.33905 156.137509,28.5070635 156.137509,29.9662496 L156.137509,34.9191965 C156.137509,36.3921919 156.001718,36.5602054 154.818718,36.5602054 Z M157.631219,34.6867394 L157.631219,28.5807133 L158.975327,28.5807133 C161.843065,28.5807133 162.446072,30.6820333 162.446072,32.4450246 C162.446072,34.2080159 161.843065,36.3162406 158.975327,36.3162406 L158.915487,36.3162406 C157.762407,36.3162406 157.628917,36.148227 157.628917,34.6844379 L157.631219,34.6867394 Z" id="Shape"></path>
                    <path d="M179.937892,32.4473262 C179.937892,29.7084754 177.601814,27.4805699 174.727171,27.4805699 C171.852529,27.4805699 169.500339,29.7084754 169.500339,32.4473262 C169.500339,35.1861769 171.845624,37.4209871 174.727171,37.4209871 C177.608718,37.4209871 179.937892,35.1884785 179.937892,32.4473262 Z M174.727171,36.5256821 C171.963003,36.5256821 171.226506,33.9617495 171.226506,32.4473262 C171.226506,30.9329028 171.963003,28.3551609 174.727171,28.3551609 C177.12309,28.3551609 178.216329,30.4771949 178.216329,32.4473262 C178.216329,33.9617495 177.482133,36.5256821 174.727171,36.5256821 Z" id="Shape"></path>
                    <path d="M187.846036,28.33905 L187.986431,28.33905 L187.986431,27.7406456 L183.433955,27.7406456 L183.433955,28.33905 L183.57435,28.33905 C184.794174,28.33905 184.934569,28.5093651 185.26139,29.5680805 L187.760879,37.4209871 L188.163651,37.4209871 L190.209734,30.9950448 L192.207483,37.3220202 L192.237404,37.4209871 L192.640176,37.4209871 L195.139665,29.5680805 C195.452676,28.5715071 195.643706,28.33905 196.822102,28.33905 L196.962497,28.33905 L196.962497,27.7406456 L193.25239,27.7406456 L193.25239,28.33905 L193.392784,28.33905 C193.915237,28.33905 194.225947,28.4173029 194.343327,28.5784118 C194.442294,28.7142035 194.435389,28.9489622 194.31801,29.3149094 L192.798983,34.1389693 L190.76671,27.7429472 L190.350128,27.7429472 L188.32476,34.1504771 L186.780416,29.317211 C186.665338,28.9374544 186.656132,28.711902 186.750496,28.5853164 C186.872478,28.4196044 187.222315,28.3413516 187.848338,28.3413516 L187.846036,28.33905 Z" id="Path"></path>
                    <path d="M201.128312,36.5602054 L200.987917,36.5602054 L200.987917,37.1586098 L204.732547,37.1586098 L204.732547,36.5602054 L204.592152,36.5602054 C203.422962,36.5602054 203.275663,36.376081 203.275663,34.9191965 L203.275663,30.171088 L206.417286,37.4186855 L206.806249,37.4186855 L209.743033,30.6244944 L209.743033,34.916895 C209.743033,36.3898903 209.609543,36.5579039 208.438051,36.5579039 L208.297656,36.5579039 L208.297656,37.1563082 L212.689024,37.1563082 L212.689024,36.5579039 L212.548629,36.5579039 C211.374836,36.5579039 211.227536,36.3737794 211.227536,34.916895 L211.227536,29.963948 C211.227536,28.5024604 211.363328,28.3367485 212.548629,28.3367485 L212.689024,28.3367485 L212.689024,27.7383441 L210.067552,27.7383441 L206.939739,34.9468152 L203.811925,27.7383441 L200.987917,27.7383441 L200.987917,28.3367485 L201.128312,28.3367485 C202.2952,28.3367485 202.42869,28.504762 202.42869,29.963948 L202.42869,34.916895 C202.42869,36.3898903 202.2952,36.5579039 201.128312,36.5579039 L201.128312,36.5602054 Z" id="Path"></path>
                    <path d="M217.872126,36.5602054 L217.731731,36.5602054 L217.731731,37.1586098 L225.474163,37.1586098 L225.605352,34.8501499 L225.039169,34.8501499 L224.933298,35.2667314 C224.749173,36.0147368 224.620286,36.3185421 223.299194,36.3185421 L221.985006,36.3185421 C220.811212,36.3185421 220.675421,36.1505286 220.675421,34.6867394 L220.675421,32.6107366 L221.299142,32.6107366 C222.758328,32.6107366 222.92404,32.7465283 222.92404,33.9318293 L222.92404,34.0722242 L223.527048,34.0722242 L223.527048,30.2999751 L222.92404,30.2999751 L222.92404,30.44037 C222.92404,31.6256709 222.756027,31.7614627 221.299142,31.7614627 L220.675421,31.7614627 L220.675421,28.5784118 L222.799756,28.5784118 C224.146166,28.5784118 224.233625,28.902931 224.426956,29.6164132 L224.535129,30.0283916 L225.112819,30.0283916 L224.949409,27.7383441 L217.72943,27.7383441 L217.72943,28.3367485 L217.869825,28.3367485 C219.045919,28.3367485 219.181711,28.504762 219.181711,29.963948 L219.181711,34.916895 C219.181711,36.3898903 219.045919,36.5579039 217.869825,36.5579039 L217.872126,36.5602054 Z" id="Path"></path>
                    <path d="M230.947262,36.5602054 L230.806867,36.5602054 L230.806867,37.1586098 L234.5561,37.1586098 L234.5561,36.5602054 L234.415706,36.5602054 C233.237309,36.5602054 233.087708,36.376081 233.087708,34.9191965 L233.087708,30.0122807 L239.090164,37.4209871 L239.649442,37.4209871 L239.649442,29.9662496 C239.649442,28.504762 239.785234,28.33905 240.968233,28.33905 L241.108628,28.33905 L241.108628,27.7406456 L237.354792,27.7406456 L237.354792,28.33905 L237.495186,28.33905 C238.664377,28.33905 238.797867,28.5070635 238.797867,29.9662496 L238.797867,34.7350721 L233.205087,27.7912799 L233.163659,27.7383441 L230.804565,27.7383441 L230.804565,28.3367485 L230.94496,28.3367485 C232.11415,28.3367485 232.24764,28.504762 232.24764,29.963948 L232.24764,34.916895 C232.24764,36.3898903 232.11415,36.5579039 230.94496,36.5579039 L230.947262,36.5602054 Z" id="Path"></path>
                    <path d="M252.825846,28.608332 C254.186065,28.608332 254.271223,28.9397559 254.457649,29.6716505 L254.565822,30.0721211 L255.143512,30.0721211 L254.987007,27.7406456 L245.47698,27.7406456 L245.322776,30.0721211 L245.905069,30.0721211 L246.001735,29.6716505 C246.192764,28.9420575 246.280223,28.6106335 247.631236,28.6106335 L249.486289,28.6106335 L249.486289,34.9214981 C249.486289,36.3783826 249.33899,36.562507 248.1698,36.562507 L248.029405,36.562507 L248.029405,37.1609113 L252.43228,37.1609113 L252.43228,36.562507 L252.291885,36.562507 C251.120394,36.562507 250.973094,36.3783826 250.973094,34.9214981 L250.973094,28.6106335 L252.828148,28.6106335 L252.825846,28.608332 Z" id="Path"></path>
                    <rect id="Rectangle" x="0" y="45.2969092" width="264.338226" height="1.0909372"></rect>
                    <rect id="Rectangle" x="0" y="18.5344246" width="264.338226" height="1.08633409"></rect>
                    <path d="M212.115937,2.8401192 L209.943268,5.93110792 L209.943268,6.89545958 C209.943268,8.90932044 210.187233,9.27756928 211.708561,9.27756928 L211.708561,9.81613322 L206.332128,9.81613322 L206.332128,9.27756928 C207.825838,9.27756928 208.097421,8.90932044 208.097421,6.89545958 L208.097421,5.95872659 L205.924753,2.8401192 C204.893656,1.36482227 204.458662,0.911415886 203.264155,0.911415886 L203.264155,0.372851953 L208.504796,0.372851953 L208.504796,0.911415886 C207.146879,0.911415886 207.011087,1.33720361 207.825838,2.4695688 L209.510576,4.87929717 L211.220632,2.4695688 C212.035382,1.30728339 211.927209,0.911415886 210.541673,0.911415886 L210.541673,0.372851953 L214.85939,0.372851953 L214.85939,0.911415886 C213.55671,0.911415886 213.121716,1.39244094 212.118238,2.8401192 L212.115937,2.8401192 Z" id="Path"></path>
                    <path d="M223.807837,3.03805295 L223.372843,3.03805295 L223.237052,2.49948902 C222.993087,1.56275603 222.693885,1.2244274 220.765181,1.2244274 L219.271472,1.2244274 L219.271472,4.40057367 C221.388903,4.40057367 221.552313,4.20263992 221.552313,2.72734299 L222.067862,2.72734299 L222.067862,6.95069691 L221.552313,6.95069691 C221.552313,5.47770154 221.388903,5.27746623 219.271472,5.27746623 L219.271472,6.58244806 C219.271472,8.59630892 219.515437,8.93463755 220.928592,8.93463755 L221.308348,8.93463755 C223.458001,8.93463755 223.533952,8.59400737 223.777917,7.65957593 L223.913709,7.14863066 L224.321084,7.14863066 L224.157674,9.81383166 L215.630411,9.81383166 L215.630411,9.27526773 C217.151739,9.27526773 217.395704,8.90701888 217.395704,6.89315803 L217.395704,3.26360537 C217.395704,1.24974451 217.151739,0.911415886 215.630411,0.911415886 L215.630411,0.372851953 L223.614507,0.372851953 L223.805536,3.03805295 L223.807837,3.03805295 Z" id="Path"></path>
                    <path d="M228.328092,7.68719459 C227.812543,8.82186134 227.812543,9.27526773 229.49498,9.27526773 L229.49498,9.81383166 L225.177263,9.81383166 L225.177263,9.27526773 C226.53518,9.27526773 226.779145,8.90701888 227.458104,7.34656441 L230.770042,0.00460311053 L231.260273,0.00460311053 L234.546894,7.34656441 C235.225853,8.87709867 235.497437,9.27526773 236.719562,9.27526773 L236.719562,9.81383166 L231.478921,9.81383166 L231.478921,9.27526773 C233.025566,9.27526773 233.188977,8.82186134 232.673428,7.68719459 L232.266053,6.7504616 L228.735467,6.7504616 L228.328092,7.68719459 L228.328092,7.68719459 Z M230.50076,2.86773786 L229.142842,5.90118771 L231.858678,5.90118771 L230.50076,2.86773786 Z" id="Shape"></path>
                    <path d="M241.023471,5.87356904 L241.023471,6.89315803 C241.023471,8.90701888 241.267436,9.27526773 242.788764,9.27526773 L242.788764,9.81383166 L237.384712,9.81383166 L237.384712,9.27526773 C238.90604,9.27526773 239.150005,8.90701888 239.150005,6.89315803 L239.150005,3.26360537 C239.150005,1.24974451 238.90604,0.911415886 237.384712,0.911415886 L237.384712,0.372851953 L242.165042,0.372851953 C244.554056,0.372851953 245.83142,1.56275603 245.83142,3.1232105 C245.83142,4.37065345 244.933813,5.47539998 243.251376,5.7884115 L244.501121,7.20616954 C245.587455,8.4536125 246.374587,9.10495264 247.541475,9.27526773 L247.541475,9.81383166 L244.501121,9.81383166 L241.486083,5.87356904 L241.023471,5.87356904 L241.023471,5.87356904 Z M242.137423,1.2244274 L241.023471,1.2244274 L241.023471,4.99437493 L242.137423,4.99437493 C243.359549,4.99437493 243.902716,4.11518082 243.902716,3.1232105 C243.902716,2.13124018 243.359549,1.2244274 242.137423,1.2244274 Z" id="Shape"></path>
                    <path d="M251.886812,10.1820805 C250.800477,10.1820805 249.822316,9.58597769 249.414941,9.21772885 C249.279149,9.36042527 249.035185,9.78391144 248.979947,10.1820805 L248.464399,10.1820805 L248.464399,6.26943655 L249.035185,6.26943655 C249.226214,8.14060098 250.473657,9.24534751 252.077841,9.24534751 C252.947829,9.24534751 253.652104,8.73440224 253.652104,7.88512835 C253.652104,7.14863066 253.028383,6.58014651 251.91443,6.04158258 L250.393102,5.27516467 C249.279149,4.73660074 248.492018,3.8021693 248.492018,2.55242479 C248.492018,1.19220563 249.714143,0.0299202185 251.371263,0.0299202185 C252.266568,0.0299202185 253.028383,0.370550398 253.516313,0.766417904 C253.624486,0.653641696 253.787896,0.34063018 253.840832,-8.47165241e-15 L254.35638,-8.47165241e-15 L254.35638,3.34646136 L253.787896,3.34646136 C253.596867,2.01386086 252.89029,0.909114331 251.479436,0.909114331 C250.692304,0.909114331 249.985727,1.36252072 249.985727,2.07139974 C249.985727,2.78027876 250.556513,3.20606649 251.859193,3.82978796 L253.378219,4.59620587 C254.6809,5.24754601 255.171131,6.29705521 255.171131,7.14632911 C255.171131,8.93233599 253.677422,10.1797789 251.88451,10.1797789 L251.886812,10.1820805 Z" id="Path"></path>
                </g>
                <path d="M130.960796,44.4315244 C130.944685,44.4568415 130.926273,44.4867618 130.912464,44.5120789 C130.930876,44.4982695 130.946987,44.4844602 130.965399,44.4706509 C130.965399,44.4568415 130.963098,44.4430322 130.960796,44.4292229 L130.960796,44.4315244 Z" id="Path" fill="#FFFFFF"></path>
                <g id="100" transform="translate(7.1809, 0)" fill="#AF863D">
                    <path d="M183.629587,53.076166 C183.015072,53.5433817 182.260162,53.8771073 181.293508,53.8771073 C181.139304,53.8771073 180.982798,53.867901 180.823991,53.8494886 C179.88956,53.7321093 179.051794,53.2648936 178.467199,52.5468083 C176.743334,53.4167962 174.885979,54.2223405 172.853705,54.6734454 C169.263279,63.6518125 162.015681,70.9385365 149.488316,70.9385365 C136.208342,70.9385365 128.882492,62.5769862 125.605077,52.7263296 C123.434711,53.9277415 121.30347,54.7977294 119.395481,54.7977294 L119.227468,54.7977294 C117.45527,54.7401905 115.970767,53.9576617 115.004114,52.5928394 C114.937368,52.5007772 114.875227,52.4041119 114.815386,52.3074466 C111.406783,54.6734454 110.258307,54.9151087 109.238718,54.9151087 C108.578171,54.9151087 108.101749,54.7401905 107.947545,54.6826516 C107.802547,54.6274143 107.659851,54.5652723 107.524059,54.4939241 C106.308838,55.2879606 105.194885,55.7298592 104.138471,55.8518417 C103.827761,55.8886666 103.523956,55.907079 103.243166,55.907079 C102.676984,55.907079 102.177546,55.8311277 101.740251,55.7091452 C98.0140326,64.2064873 90.8492911,70.940838 78.8052524,70.940838 C73.2032668,70.940838 68.6669014,69.4448271 65.0419519,66.9867661 C63.6241938,68.8947554 62.0246129,70.9362349 59.9808318,72.6808138 C59.7598825,72.8695413 59.4975052,73.0881891 59.2144139,73.3183446 C65.0718721,76.1998918 71.7417792,77.8409007 78.8075539,77.8409007 C93.6042527,77.8409007 106.66788,70.6623498 114.150237,59.8910712 C121.632593,70.6623498 134.693919,77.8409007 149.492919,77.8409007 C166.328796,77.8409007 180.922958,68.5518236 187.597468,55.2465326 C186.004792,55.1291533 184.593939,54.365037 183.63419,53.0807691 L183.629587,53.076166 Z" id="Path"></path>
                    <path d="M30.0122807,52.8275981 L30.0122807,0 L0,5.82293483 L0,10.5664402 C11.7080116,10.350094 15.3260565,11.8599143 15.3260565,27.1698599 L15.3260565,52.8275981 C15.3260565,68.1352421 13.408861,70.9385365 1.48910626,70.9385365 L1.48910626,75.0353048 L43.8469294,75.0353048 L43.8469294,70.9385365 C31.9271747,70.9385365 30.0122807,68.1352421 30.0122807,52.8275981 L30.0122807,52.8275981 Z" id="Path"></path>
                    <path d="M53.7021891,55.8771588 C54.2844825,55.3524042 54.8966962,54.8483636 55.5043068,54.3420214 C53.6032222,49.4189947 52.7746623,44.0126414 52.7746623,39.0274727 C52.7746623,25.0133026 59.4929021,7.11640889 78.8029508,7.11640889 C98.1129995,7.11640889 105.040681,25.0133026 105.040681,39.0274727 C105.040681,39.0873131 105.038379,39.1494551 105.038379,39.2092955 C105.507897,38.9492198 106.143126,38.7144612 106.953273,38.6845409 C107.059145,38.6776363 107.158112,38.6753347 107.254777,38.6753347 C108.4723,38.6753347 109.554031,39.1816769 110.272116,40.0217445 C110.819886,39.4923868 111.696779,38.9308073 113.020173,38.8502529 L113.395326,38.8387451 C115.084668,38.8387451 116.060527,39.646591 116.569171,40.288725 C117.061704,39.7961921 117.554237,39.2967546 118.035262,38.7973171 C118.755649,38.0470101 119.761428,37.6327302 120.863873,37.6327302 C121.133155,37.6327302 121.674021,37.6603488 122.24941,37.8421717 L122.24941,37.8421717 C122.702816,37.9779635 123.110191,38.1966112 123.469234,38.4704963 C123.644152,24.5437854 130.431439,7.11640889 149.490618,7.11640889 C163.373599,7.11640889 170.775401,16.1684258 173.89631,26.4379654 C174.434874,26.3251891 174.973438,26.2561425 175.500494,26.2561425 C176.913649,26.2561425 178.193313,26.6635178 179.199093,27.4368403 C180.918355,28.7579331 181.624932,30.9167919 181.139304,33.3610436 C180.929863,34.4473777 180.455742,35.4876807 179.91948,36.4359214 C180.032256,36.728219 180.117414,37.0343258 180.172651,37.3565435 C180.464949,39.0343773 179.836624,40.8042733 178.069029,43.269239 L178.059823,43.2807468 C177.815858,43.6582019 177.37396,44.2704156 176.821587,45.0069133 C177.739907,44.5535069 178.596086,44.102402 179.311869,43.7226454 C179.781387,43.4740774 180.184159,43.2600328 180.543201,43.0759084 C182.959834,39.6281786 185.845985,35.8674373 189.415697,32.7212112 C189.263794,32.1020929 189.197049,31.4967838 189.210859,30.8937764 C189.236176,29.9616465 189.427205,29.0456275 189.747121,28.1756396 C184.600843,12.2373694 168.469242,0.43269239 149.488316,0.43269239 C134.691617,0.43269239 121.62799,7.61124327 114.145633,18.324983 C106.663277,7.61124327 93.5996496,0.43269239 78.8029508,0.43269239 C55.7137484,0.43269239 36.8225827,17.8968938 36.8225827,39.0274727 C36.8225827,48.8873354 40.8595107,57.9163367 47.4741805,64.7818761 C48.5029757,61.780648 50.7654045,58.5239473 53.7021891,55.8771588 L53.7021891,55.8771588 Z" id="Path"></path>
                </g>
                <path d="M267.327946,54.7309843 C266.708827,54.1279768 265.749079,54.1924203 264.957344,54.2476577 C264.796235,54.2591654 264.639729,54.2706732 264.487827,54.2729748 C261.942307,54.365037 259.346152,54.701064 256.832854,55.0301864 C254.6809,55.3109762 252.648626,55.5779566 250.841905,55.6562095 L249.937394,55.6930344 C246.192764,55.8518417 239.92793,56.1096159 239.674759,53.4306055 C239.642538,52.8644229 240.054516,52.1164175 240.834743,51.3246825 C243.974065,50.4132666 247.044339,49.3775667 250.070884,46.8826808 C250.77516,46.3164982 251.955858,45.370559 251.359755,44.2105751 C251.02603,43.6328848 250.574925,43.6812174 249.91668,43.7571687 C243.734703,45.1542128 241.771476,47.3107701 239.49754,49.805656 L239.368652,49.9460509 C239.20294,50.1278737 239.032625,50.3142997 238.857707,50.5007257 L238.830089,50.5076303 C236.972733,50.9173072 233.106121,51.7665811 232.249942,50.8528636 C231.559475,49.9115275 231.854075,48.1554409 232.167086,46.2980858 C232.259148,45.7549187 232.353512,45.1956408 232.427162,44.6386644 L234.473244,43.0321788 C237.637883,40.5464991 239.923327,38.751286 249.817713,31.0825039 C250.015647,30.9167919 250.229692,30.7625877 250.462149,30.5968757 C250.966189,30.23323 251.488643,29.8580765 251.891415,29.3218141 L252.186014,28.9305497 L251.741814,28.7280128 C250.312548,28.0743712 249.062803,29.1837208 248.234243,29.92252 L247.990279,30.1388662 C245.152461,32.5624039 239.978565,36.5717132 238.864612,37.39567 C238.054464,37.9480432 236.643611,39.0527898 235.225853,40.1598379 C234.15563,40.9999055 233.053185,41.8606872 232.29137,42.4176636 C232.167086,42.2059205 231.971454,42.0839381 231.711378,42.0678272 C230.374174,42.2105236 229.989815,43.144955 229.771167,44.8158842 C227.782623,46.8458559 225.596146,48.5144835 224.749173,48.993207 C226.680178,44.7537422 229.803389,41.851481 233.115327,38.772 C233.893252,38.0470101 234.698797,37.2990047 235.472119,36.5486976 C238.199462,34.3553155 238.510172,33.60731 238.095892,33.0733492 L237.996926,32.9927948 L237.91407,32.9720808 C236.708055,32.6636724 235.957748,33.4300903 235.320217,34.0814304 C235.198234,34.2057144 235.078553,34.3253953 234.956571,34.4335684 C234.325945,34.9974494 233.720636,35.6234724 233.073899,36.2909235 C232.574461,36.8064718 232.005977,37.3933684 231.40297,37.9664557 C230.519172,38.7812063 229.725136,39.6627019 228.940306,40.5326898 C228.081825,41.4855337 227.193425,42.4705993 226.16463,43.3751106 C224.689333,44.7146157 222.889517,45.9689634 221.144938,47.1864861 C220.68923,47.5110054 220.187491,47.911476 219.685752,48.3119466 C218.120694,49.5547865 215.980248,51.2533342 215.038912,50.7354843 C214.530268,50.3672355 214.762725,49.6744673 215.467001,48.2866295 C216.677619,46.307292 217.218485,45.5684927 218.560291,43.8998652 C219.326709,43.1495582 220.169078,42.4314729 220.983829,41.7364032 C222.387778,40.5395945 223.840059,39.3036593 224.99544,37.8306639 C225.407418,37.3013062 225.840111,36.4865557 225.902253,36.1229099 C225.943681,35.8697388 225.821698,35.6165678 225.589241,35.480776 C225.278531,35.2989531 224.687031,35.2644298 223.637522,36.127513 C221.497076,37.8859013 219.738688,39.4808791 218.109186,41.5499772 C217.828397,41.9067183 217.575226,42.2634594 217.331261,42.6086927 C216.808808,43.3428888 216.313973,44.0379585 215.605094,44.66168 C213.876626,46.1738018 212.157365,47.580052 210.886906,48.516785 L210.608418,48.723925 C209.333356,49.6790704 208.016867,50.6687392 206.421889,50.7032625 C206.42419,50.6986594 206.428793,50.6917548 206.431095,50.6871517 L206.513951,50.5306459 C207.485207,48.6272597 209.153835,46.5466537 210.638338,44.6939017 C212.794895,42.0079867 214.350747,40.0677756 213.934165,38.8272374 C213.524488,37.6005084 212.718944,37.3864638 211.49912,37.064246 C210.866192,36.898534 210.083663,36.6913941 209.066376,36.2840188 C210.866192,32.815575 210.509451,30.3437046 209.878825,28.8684077 C209.061773,26.9489106 207.42997,25.8832905 206.594505,25.6623412 C204.928179,25.2296488 203.248044,25.5633744 201.864809,26.6036773 C200.460861,27.6577896 199.593174,29.2918939 199.547143,30.9766323 C199.533334,31.5520212 199.666824,32.1642349 199.963725,32.8616061 C200.127135,33.1907285 200.265228,33.3978685 200.460861,33.6326271 C196.085604,36.9583745 192.644779,41.5131524 189.848389,45.5523819 C189.371967,45.768728 188.727532,46.1093582 187.98413,46.5029242 C184.715921,48.2313922 179.323377,51.0853207 175.86414,50.2544593 C177.652448,48.1278222 181.91723,42.6616284 182.62841,41.5246601 L182.692854,41.4348995 C183.868949,39.7938906 184.379894,38.6339067 184.251007,37.8882028 C184.184262,37.4923353 183.98863,37.1862285 183.684824,37.0044056 C183.53062,36.9100418 183.351099,36.8548045 183.150864,36.8317889 C183.215307,36.7328221 183.279751,36.6315536 183.346496,36.5256821 L183.385622,36.4658417 C184.103707,35.3518889 184.996711,33.9663526 185.231469,32.7488299 C185.546783,31.1584552 184.987505,30.3414031 184.46275,29.9386309 C183.509906,29.2067363 181.866596,29.2366566 180.276221,30.0122807 C175.979217,32.1112991 172.421013,35.6395833 171.447455,36.6568707 L170.89278,37.1632129 C170.151679,38.0101852 169.334627,38.87557 168.386386,39.8790481 L168.266706,40.0056337 C167.746554,40.5580069 167.194181,41.142602 166.609586,41.7732281 L166.285067,41.996479 C159.870632,46.1922142 152.383673,50.2061266 151.472257,49.4926445 C150.933693,49.0668567 151.746142,47.1887876 152.344546,45.8124576 C153.278978,43.6605034 154.335392,41.2208548 152.526369,40.4015012 C151.748443,40.0493632 150.926788,40.9492713 149.527443,42.477504 C148.721898,43.3566981 147.810482,44.3555731 146.894463,45.0851661 C145.621703,46.100152 145.458293,46.2313407 143.73673,47.0253772 C142.300559,47.6882251 140.864389,48.2521062 139.467345,48.703211 C139.320045,48.7515437 139.145127,48.8136857 138.926479,48.8942401 C138.256726,49.1359034 137.246344,49.5064538 136.78143,49.3614558 C136.70778,49.3384403 136.551274,49.2924092 136.537465,48.8919385 C136.502941,47.9552056 137.250947,46.7307781 137.476499,46.6318113 C139.971385,45.6720627 142.841425,43.5615365 142.972613,42.0655256 C143.014041,41.5868021 142.79079,41.163316 142.355796,40.9009387 C140.832167,39.9941259 139.000129,41.6627535 136.67786,43.7778827 C133.982738,46.2313407 130.629372,49.2832029 126.57173,49.7228 C126.143641,49.7895451 125.936501,49.2878061 125.899676,49.0254288 C125.784598,48.180758 126.12753,47.2463265 126.518795,46.2796733 C126.898551,45.3383372 127.386481,44.3555731 128.053932,43.1886846 C128.261072,42.8250389 128.475117,42.4682978 128.725986,42.0678272 C128.873286,41.8698934 129.041299,41.644341 128.992967,41.354345 C128.969951,41.2139502 128.873286,40.9630806 128.528052,40.8595107 C128.521148,40.8549076 127.835284,40.6316567 127.496956,40.9837946 C124.845564,43.7410579 120.258564,48.118616 118.270021,49.1635221 C118.350575,48.9356681 118.458748,48.6594815 118.589937,48.3625808 C119.054851,47.2992623 119.584209,46.2474515 120.235549,44.9931039 C120.447292,44.5880302 120.661336,44.1829565 120.877683,43.7755812 L120.946729,43.6605034 C121.351803,43.0045602 121.552038,42.6455175 121.326486,42.2933796 C121.117044,41.9688603 120.709669,41.9872727 120.484117,41.9895743 L120.408165,41.9941774 C120.242453,42.0033836 119.894919,42.0263992 119.632541,42.3094905 C119.572701,42.373934 119.517463,42.4429807 119.462226,42.5120273 L119.397783,42.5948833 C119.165326,42.8779746 118.932868,43.1610659 118.69811,43.4418557 C117.931692,44.3578747 117.206702,45.1979423 116.486315,46.0057882 C115.471329,47.1427565 114.619754,48.0426647 113.805003,48.8390028 C113.038585,49.5916113 112.281374,50.3119981 111.429798,50.8551652 C111.236468,50.9794492 110.928059,51.1773829 110.697904,51.2027 C110.693301,51.1083363 110.711713,50.908101 110.831394,50.5168366 C111.139802,49.5041522 111.689874,48.5006741 112.131773,47.6928283 C112.640416,46.7629999 113.215805,45.7917436 113.945398,44.6340613 C114.191665,44.2450985 114.440233,43.8561356 114.693404,43.4694743 C114.727927,43.4165386 114.76245,43.3659043 114.808481,43.3037624 C114.886734,43.1932877 114.962686,43.0828131 115.045542,42.9401166 C115.121493,42.8158326 115.264189,42.5833756 115.195143,42.3025858 C115.142207,42.100049 114.964987,41.7755297 114.311345,41.830767 C113.883256,41.8376717 113.669212,42.0079867 113.471278,42.1967143 C112.948825,42.6892471 112.39415,43.1955893 111.823364,43.7019314 C110.905044,44.516682 109.989025,45.2923061 109.102926,46.0080898 C107.94064,46.9425212 106.898036,47.7227485 105.910669,48.3855964 C105.038379,48.972493 103.998076,49.6330393 102.877219,50.1002551 C102.193657,50.3833464 101.411128,50.6480252 100.787407,50.4708055 C100.525029,50.3971557 100.458284,50.2958873 100.430666,50.2061266 C100.115353,49.2141563 102.527382,46.2428484 103.687366,44.8158842 C105.029173,43.1633675 105.312264,42.7675 105.236313,42.3486169 C105.178774,42.017193 104.996951,41.7548157 104.727669,41.6121192 C104.430769,41.4533119 104.085535,41.4648197 103.807047,41.520057 C103.450306,41.1034755 102.769046,40.5027696 101.721838,40.3232483 C100.582568,40.123013 99.3374269,40.4935634 98.0255404,41.4256933 C93.5996496,41.5868021 88.0713139,43.8561356 83.6224075,45.6789674 L83.5050282,45.7273001 C84.8790567,44.1461316 86.2047525,42.7651984 87.2128337,41.8583856 C91.6939619,38.1689926 96.9392063,34.5371383 97.9979217,33.835164 L98.7528319,33.338028 C99.9128157,32.5739117 100.831136,31.9709042 101.41343,31.3264687 C101.599856,31.1216303 101.655093,30.8362375 101.556126,30.5830664 C101.441048,30.2884673 101.146449,30.0790258 100.7782,30.0514071 C95.7861271,30.1227553 90.8308786,31.252819 86.4464158,33.3196156 C82.5153594,35.1746692 79.1688981,37.7363002 77.0238486,40.5372929 C76.188384,41.6305317 75.520933,43.2646359 75.2378417,44.914851 C74.9409411,46.643319 75.1020499,48.2359953 75.686645,49.4351056 C71.1617873,51.7872951 66.7842292,54.8207449 63.0142817,58.2178405 C59.6839312,61.216767 57.9393523,64.5010864 57.4168993,66.5724861 C56.8783353,68.7060278 57.050952,70.3516399 57.9278445,71.4632911 C58.3467276,71.9926488 58.9520366,72.3724054 59.6793281,72.5565298 C59.9417054,72.6232749 60.2155905,72.6577982 60.4917771,72.6577982 C62.3537353,72.6577982 64.068394,71.1917075 65.1340141,70.2802916 C67.2123185,68.5057925 68.8763429,66.2456653 70.3447352,64.2525184 L70.3838616,64.1995826 C70.7636183,63.6817327 71.1571842,63.1477719 71.5369408,62.5930971 C72.0110612,61.9003289 76.1492576,55.8748572 78.4047817,52.8252965 C80.2138042,54.2476577 85.369288,57.9531616 88.7732882,56.9358742 L91.0242093,56.2661216 L88.7042416,55.9024759 C85.1575449,55.3501026 82.1517137,53.9553601 79.267865,51.5203147 C79.4565925,51.2349218 79.6407169,50.949529 79.8271429,50.6572314 C80.4117379,49.7481171 80.9641112,48.889637 81.6568793,48.097902 C83.0263047,47.6053692 84.3612068,47.0737099 85.705315,46.5397491 C88.9343971,45.2577828 91.9908625,44.0448632 95.6825571,43.2968577 C92.8930721,45.6237301 91.0840497,47.5662427 91.8113412,50.0818426 C91.9655454,50.618105 92.3153818,51.0001632 92.8194224,51.1842876 C94.2993224,51.7343593 96.9507141,50.4224728 98.6239448,49.4374071 C98.6699759,50.1739048 98.9139407,51.1497643 99.8000395,51.6952329 C101.60676,52.8114872 105.042982,51.4949976 110.295132,47.6744158 C110.256005,47.7526687 110.216879,47.82862 110.177752,47.9068729 C109.218004,49.7987513 108.45849,51.2947622 109.068403,52.1739564 C109.402128,52.657283 110.01204,52.8298996 110.980995,52.7125203 C112.511529,52.5376021 114.587532,50.7608014 116.341317,48.9471759 C115.692279,50.4915195 115.717596,51.0208772 115.814261,51.2832545 C115.887911,51.4880929 116.037512,51.6422971 116.233144,51.7159469 C116.504728,51.8149137 117.303367,52.118719 124.422078,46.5857802 C124.17351,47.8976667 124.028512,49.7066891 124.776517,50.763103 C125.170083,51.3200794 125.745472,51.6123769 126.484271,51.6353924 C126.521096,51.6353924 126.557921,51.6353924 126.597047,51.6353924 C128.956142,51.6353924 132.854976,49.076063 134.965502,47.6905267 C134.818203,48.2682171 134.749156,48.9356681 134.930979,49.5501834 C135.108199,50.1439846 135.487955,50.597391 136.061043,50.8942916 C137.301581,51.5410287 140.137097,50.3396168 142.880551,49.1842361 C143.895537,48.7561468 145.041711,48.2728202 145.48361,48.2129797 C145.499721,48.2797248 145.520435,48.4063104 145.545752,48.6525768 C145.644719,49.6583564 145.828843,51.5272193 149.465301,51.5272193 L149.559664,51.5272193 C152.839381,51.4972991 158.082324,48.7147188 161.90981,46.6824455 C162.089331,46.5857802 162.268853,46.4914164 162.446072,46.3970526 C161.527752,47.5317194 160.795857,48.5743239 160.176739,49.6215316 C159.42413,50.9472274 159.12723,51.637694 159.380401,52.2591139 L159.414924,52.3143512 C159.592144,52.5514114 159.83841,52.6941078 160.135311,52.7309327 C160.611733,52.7976778 161.219343,52.5560145 161.785526,52.098005 C163.332171,50.9196087 164.508266,49.7251016 165.997372,48.2129797 C166.326495,47.8769527 166.674029,47.5248147 167.046881,47.1519628 C168.045756,46.1553893 172.404902,40.852606 172.86061,39.5269102 C173.189732,38.5648601 173.175923,38.1758972 172.708707,37.5061446 C174.849154,35.2897469 177.192137,33.0572383 179.832021,31.6141632 C181.065654,30.9259981 182.36143,30.3091813 183.463875,30.9490137 C184.605446,32.3115344 182.112862,35.9249762 181.23597,37.1102771 C179.542025,37.7178877 175.134547,39.7892875 175.680015,41.8998136 L175.737554,42.0102883 L175.804299,42.0632241 C176.828491,42.8779746 179.182982,41.3497419 180.099001,40.5234836 C180.886133,39.8169061 181.928738,38.6385098 182.299288,38.2035159 C182.566268,38.1160568 182.706663,38.1367708 182.757298,38.208119 C182.782615,38.5211305 182.695156,38.7374767 182.280876,39.3588966 C181.91723,39.9135714 176.867618,47.0322819 174.865265,49.2026485 C174.759393,49.3177263 174.671934,49.4189947 174.600586,49.5064538 C174.057419,48.6456721 173.946944,47.2325172 173.857183,46.0725333 C173.765121,44.8964386 173.705281,44.1208145 173.219653,43.7732796 C172.835293,43.5707428 172.404902,43.6996299 172.186254,43.7939936 C170.950319,44.3210498 170.110251,45.9091229 169.622322,48.6548784 C169.539466,49.117491 169.454308,49.8286715 169.461213,50.2958873 C169.488831,52.4639523 170.110251,53.594016 171.359996,53.7459186 C172.809976,53.9277415 173.661551,52.9150572 174.356621,52.0957035 C174.476302,51.9553086 174.589078,51.8218184 174.704156,51.6929313 C179.061,52.5168881 182.665235,50.5881848 186.156695,48.723925 C186.706766,48.4316275 187.249933,48.13933 187.7931,47.8631433 L188.614756,47.4419587 C188.716024,47.389023 188.817293,47.3383887 188.918561,47.285453 C188.594042,47.8470325 188.308649,48.4408337 188.145238,49.0714599 C187.954209,49.7941482 187.935797,50.2774748 188.090001,50.5053288 C188.165952,50.618105 188.283332,50.6917548 188.41452,50.7078657 C188.817293,50.7561983 189.125701,50.4892179 189.931245,49.3867729 C190.223543,48.8574152 190.439889,48.3165497 190.651632,47.7848905 C190.939327,47.0668052 191.213212,46.3878464 191.643602,45.8377747 C192.092406,45.5316679 192.357085,45.3544481 192.716127,45.121991 C192.755254,45.8078545 192.771365,46.5098288 192.787475,47.2072001 C192.826602,48.8505106 192.858824,50.2682686 193.240882,51.0047663 C193.883016,52.0174506 195.257044,52.8437089 198.168512,51.0554005 C199.701347,50.0887473 203.103046,46.0080898 203.623198,45.2094501 C203.657721,45.1588159 203.784306,44.9861993 203.956923,44.7491391 L204.060493,44.6064426 C204.723341,43.6996299 205.370078,42.808928 205.614043,42.4406791 C206.843073,40.5787209 207.469096,39.434848 208.447257,37.5383664 C208.691222,37.6120162 208.969711,37.6856659 209.268913,37.7662204 C210.440404,38.0792319 212.399028,38.6016849 212.249427,39.3565951 C212.07681,40.2357892 210.488737,42.2404438 209.082487,44.019546 C208.028374,45.349845 207.034103,46.6064942 206.442603,47.5823536 C206.339033,47.7526687 206.088163,48.1071082 205.8465,48.4500399 L205.809675,48.5029757 C205.657772,48.7216235 205.510473,48.9287634 205.409205,49.0783645 C205.317142,49.2164578 205.229683,49.3361387 205.135319,49.4673274 C204.78088,49.9529555 204.502392,50.3373153 204.608263,51.0369881 C204.70723,51.6952329 204.983417,52.0335615 205.538092,52.1693532 L205.593329,52.1785595 L205.632455,52.1785595 C208.827014,52.0749895 210.882303,50.2751733 212.868545,48.5328959 C213.430125,48.0403631 214.007815,47.5340209 214.594712,47.0852177 C213.828294,48.3948026 213.176954,49.8171638 213.680994,51.2027 L213.720121,51.2717467 C214.953754,52.9219618 216.834125,51.7044391 218.495848,50.6296128 C218.804256,50.431679 219.112665,50.2314437 219.44639,50.0312084 C220.972321,48.9034463 222.178336,48.0058398 223.483318,47.0138694 C223.570777,46.9471243 223.665141,46.8757761 223.766409,46.8021264 C223.177211,47.72505 222.733011,48.6686877 222.440713,49.6169285 C222.288811,50.0243037 222.422301,50.4063619 222.818169,50.6940563 C224.118547,51.6284878 227.280884,49.2233625 229.872435,46.8619668 C229.854023,48.1301238 229.895451,49.0875707 230.08648,50.1393815 C230.226875,50.8965932 230.595124,51.4811882 231.18202,51.8816588 C232.73557,52.9380727 235.508944,52.4846663 238.105099,51.9852288 C237.637883,53.0048178 237.605661,53.9346461 238.006132,54.7563014 C238.827787,56.4341352 241.394021,57.2442826 243.343438,57.428407 C248.034008,57.904829 253.472583,57.1246017 258.743145,56.3696916 C261.751277,55.9393008 264.593698,55.5319255 267.104695,55.3961337 L268,55.3478011 L267.357866,54.721778 L267.327946,54.7309843 Z M242.666781,49.0668567 C244.192712,47.5478303 246.137527,46.4591946 248.192815,45.9643602 C246.252604,47.4902914 244.432074,48.5121819 242.666781,49.0668567 Z M194.564276,44.0126414 C197.30773,42.0563194 201.22958,39.1425504 204.267633,36.0354508 C204.741753,36.1965597 205.146827,36.3484623 205.568012,36.5049681 C205.991498,36.6637754 206.428793,36.8294874 206.930533,36.9905963 C204.905164,41.1172849 202.599006,44.5489038 199.88317,47.4810852 L199.825631,47.5455287 C199.015484,48.4477384 196.541312,51.1957954 195.008476,50.5743754 C194.458405,50.1762064 194.513642,48.4983726 194.568879,46.871173 C194.601101,45.913726 194.635624,44.9263588 194.564276,44.0126414 L194.564276,44.0126414 Z M202.849875,33.5635805 L202.905112,33.5198509 L202.905112,33.5198509 C203.885575,32.7603377 205.494362,31.4944823 206.274589,31.5865445 C206.274589,32.0008244 205.420712,33.2045378 203.993748,34.5164243 C203.443676,34.3230937 203.100745,34.1527786 202.592101,33.7638158 C202.677258,33.6993722 202.762416,33.6326271 202.852177,33.565882 L202.849875,33.5635805 Z M203.038603,35.5406164 C201.899333,36.6821879 201.238786,37.3174171 200.018962,38.3761325 C199.224926,38.9860447 198.557474,39.5107993 197.809469,40.0999974 L196.380203,41.2208548 C195.800211,41.6742612 195.572357,41.8445763 194.670148,42.4636947 C194.591895,42.5166305 194.479119,42.5902802 194.352533,42.6685331 C194.301899,42.5465507 194.230551,42.4222667 194.136187,42.311792 C195.929098,39.7938906 199.993645,35.9065637 201.526481,34.6245974 C202.007506,34.958323 202.51615,35.2897469 203.040904,35.5406164 L203.038603,35.5406164 Z M207.584174,31.2597236 C207.452986,30.2769595 206.520856,30.3529109 206.069751,30.3943389 C204.70723,30.5094166 202.958048,31.7568596 201.618543,32.7442268 C200.916569,31.7200347 200.960298,30.7096519 201.130613,30.0214869 C201.452831,28.732616 202.47242,27.568029 203.71526,27.0593853 C205.273413,26.5438369 206.401175,26.9926402 207.073229,27.4552528 C208.164166,28.2124645 208.875347,29.5611759 208.928283,30.9743308 C208.944393,32.1527271 208.707333,33.0250165 208.470273,33.8006407 C208.118135,34.7672939 207.805124,35.4301418 207.60719,35.8075968 C206.898311,35.5866475 206.120385,35.29435 205.427617,35.0342743 L205.271111,34.9767354 C206.417286,33.8742904 207.733775,32.3989935 207.581873,31.2574221 L207.584174,31.2597236 Z M179.507502,39.2023909 C178.743385,39.8606357 177.965459,40.3807872 177.376261,40.7099096 C177.746812,40.3393592 178.264662,39.8997621 178.844654,39.5614335 C179.04719,39.4417526 179.26814,39.3220717 179.5052,39.2023909 L179.507502,39.2023909 Z M167.254021,43.0574959 C168.76154,41.3819637 170.229932,39.8583341 171.442852,38.7029534 C171.392218,39.1195349 171.079206,39.8261123 170.096442,41.1587128 C167.716634,44.5972364 163.318362,48.9494774 161.507038,50.1716033 C162.149172,49.158919 163.59685,47.2601359 165.705075,44.8135826 C165.850073,44.7675515 165.90531,44.7629484 165.900707,44.7606468 C166.469191,44.8826293 166.798313,44.6639815 166.975533,44.4637462 C167.244815,44.1622425 167.336877,43.6904236 167.25172,43.0574959 L167.254021,43.0574959 Z M148.533171,49.5455802 C148.220159,49.5847067 147.96929,49.4972476 147.764451,49.2762983 C147.366282,48.8505106 147.258109,48.0748864 147.359378,47.5616396 C147.51128,46.7791108 150.682823,43.1794784 151.833601,42.6501207 C151.822093,42.6869455 151.805982,42.7237704 151.789871,42.7675 C151.651778,43.1150348 151.502177,43.5109023 151.334163,43.9528009 L151.29964,44.04026 C150.892265,45.121991 150.429652,46.3441169 149.946326,47.4258478 L149.808232,47.7365578 C149.430777,48.5950379 149.039513,49.4834382 148.530869,49.5455802 L148.533171,49.5455802 Z M138.551326,44.4177151 C139.181952,43.7157407 140.028924,43.0551944 140.728597,42.6685331 C140.224556,43.2554297 139.439726,43.9551025 138.551326,44.4177151 Z M102.34556,43.1955893 C101.689616,44.1599409 95.3603394,50.6756439 93.5950465,49.6031191 C93.3349708,49.4443118 93.2429085,49.2509812 93.2866381,48.9356681 C93.5697294,46.7745077 99.0865574,42.5488522 100.635504,42.0908427 C100.877167,42.0194945 101.10272,41.9826696 101.307558,41.9826696 C101.859931,41.9826696 102.136118,42.2450469 102.251196,42.4015527 C102.437622,42.6570253 102.47905,42.9976555 102.347861,43.1932877 L102.34556,43.1955893 Z M78.7062855,47.7963982 C78.2160542,48.0587755 77.6774903,48.3487715 77.1113077,48.6640846 C76.0802109,46.3510215 77.249401,43.0874162 78.144706,41.8008468 C80.1309482,38.9515213 82.2460775,37.5866991 83.7927226,36.5901256 C84.0320844,36.4359214 84.2599383,36.2886219 84.4762845,36.1459255 C85.7352353,35.3012547 88.138059,34.3069828 89.4591517,33.7891329 C92.6905353,32.5232775 95.8206504,31.7683674 98.7804505,31.5405134 C97.1463463,32.5831179 92.17959,35.8904528 87.2749757,39.6696066 C85.5419046,41.0988724 83.9653393,42.4475838 82.2253635,44.4844602 L81.3346616,45.5247632 C80.8881599,46.0472162 80.4876893,46.5167335 79.9606331,47.119741 C79.583178,47.326881 79.1873105,47.538624 78.7799352,47.7572718 L78.7108886,47.7940967 L78.7062855,47.7963982 Z M76.4737769,50.7769123 C76.6924246,51.1175425 76.8949615,51.3960307 77.1159108,51.6630111 C75.1365733,54.3051965 73.1779497,57.1199986 71.1318671,60.2616216 C70.7521105,60.8462166 70.3746554,61.4308116 70.0087081,62.0015973 C67.9511177,65.0511581 64.901557,69.0282456 62.0591362,70.6554452 C61.1385141,71.1825013 60.1396391,71.2331355 59.4514741,70.7912369 C58.7932293,70.3654492 58.489424,69.5322862 58.592994,68.4459521 C59.0763206,63.4400694 63.8244291,59.5734565 64.0361722,59.4031415 C68.1030204,55.8219215 70.2595776,54.2292452 76.4714753,50.7746108 L76.4737769,50.7769123 Z M173.380761,51.1060347 C172.754738,51.9760226 172.142525,52.6895047 171.539517,52.5145865 C171.470471,52.4938725 171.366901,52.4455399 171.267934,52.243003 C170.809924,51.3177778 171.194284,48.9333665 171.730546,47.223311 C171.79499,48.0219507 171.986019,49.1704267 172.517678,50.1048582 C172.775452,50.5628677 173.095369,50.8758792 173.380761,51.1037332 L173.380761,51.1060347 Z" id="James" fill="#FFFFFF"></path>
            </g>
        </g>
    </g>
</svg>